…
library(tidyr)
library(dplyr)

set.seed(123) # For reproducibility

LOS_model %>% 
  pivot_wider(id_cols = ID
              , names_from = Organisation
              , values_from = LOS
              , values_fill = list(LOS = 0)
              , values_fn = list(LOS= function(x){x+ rpois(n = 1, lambda = 3)})
              )

## # A tibble: 300 × 11
##       ID Trust1 Trust2 Trust3 Trust4 Trust5 Trust6 Trust7 Trust8 Trust9 Trust10
##    <int>  <int>  <int>  <int>  <int>  <int>  <int>  <int>  <int>  <int>   <int>
##  1     1      4      0      0      0      0      0      0      0      0       0
##  2     2      0      5      0      0      0      0      0      0      0       0
##  3     3      0      0     14      0      0      0      0      0      0       0
##  4     4      0      0      0      8      0      0      0      0      0       0
##  5     5      0      0      0      0     17      0      0      0      0       0
##  6     6      0      0      0      0      0      7      0      0      0       0
##  7     7      0      0      0      0      0      0      7      0      0       0
##  8     8      0      0      0      0      0      0      0      9      0       0
##  9     9      0      0      0      0      0      0      0      0     10       0
## 10    10      0      0      0      0      0      0      0      0      0       4
## # … with 290 more rows
…
I remember hearing Tom Jemmett @tomjemmett talk about the magic of purrr. Now I’m a bit slow off the mark with purrr because I couldn’t see why it was different to apply functions. Now I’ve hear more about it, I can see there’s more consistency and it allows some nice applications of functions. The thing that was really nice though was anonymous functions! They look so much cleaner, and are defined as a one-sided formula. I’ve replaced the aggregate function with an anonymous one in the example below:

library(purrr)

set.seed(123) # For reproducibility

LOS_model %>% 
  pivot_wider(id_cols = ID
              , names_from = Organisation
              , values_from = LOS
              , values_fill = list(LOS = 0)
              , values_fn = list(LOS= ~ . + rpois(n = 1, lambda = 3))
  )

## # A tibble: 300 × 11
##       ID Trust1 Trust2 Trust3 Trust4 Trust5 Trust6 Trust7 Trust8 Trust9 Trust10
##    <int>  <int>  <int>  <int>  <int>  <int>  <int>  <int>  <int>  <int>   <int>
##  1     1      4      0      0      0      0      0      0      0      0       0
##  2     2      0      5      0      0      0      0      0      0      0       0
##  3     3      0      0     14      0      0      0      0      0      0       0
##  4     4      0      0      0      8      0      0      0      0      0       0
##  5     5      0      0      0      0     17      0      0      0      0       0
##  6     6      0      0      0      0      0      7      0      0      0       0
##  7     7      0      0      0      0      0      0      7      0      0       0
##  8     8      0      0      0      0      0      0      0      9      0       0
##  9     9      0      0      0      0      0      0      0      0     10       0
## 10    10      0      0      0      0      0      0      0      0      0       4
## # … with 290 more rows
…
